"type","Aprical","Epicormic","Basal.Collar","Underground","unknown"
"Basal",0,0,1,0,0
"basal",0,0,1,0,0
"topkilled or apical",1,0,1,0,0
"?",NA,NA,NA,NA,1
"basal + epicormic",0,1,1,0,0
"apical + epicormic",1,1,0,0,0
"apical + basal",1,0,1,0,0
"topkilled",0,0,1,0,0
"epicormic",0,1,0,0,0
"basal + apical",1,0,1,0,0
"Basal-epicormic",0,1,1,0,0
"Epicormic",0,1,0,0,0
" ",NA,NA,NA,NA,1
NA,NA,NA,NA,NA,1
"",NA,NA,NA,NA,1
